module dab.io/pinub

go 1.19

require (
	github.com/google/uuid v1.3.0
	golang.org/x/crypto v0.5.0
	golang.org/x/exp v0.0.0-20230118134722-a68e582fa157
	modernc.org/sqlite v1.20.2
)

require (
	github.com/dustin/go-humanize v1.0.1 // indirect
	github.com/kballard/go-shellquote v0.0.0-20180428030007-95032a82bc51 // indirect
	github.com/mattn/go-isatty v0.0.17 // indirect
	github.com/remyoudompheng/bigfft v0.0.0-20220927061507-ef77025ab5aa // indirect
	golang.org/x/mod v0.7.0 // indirect
	golang.org/x/sys v0.4.0 // indirect
	golang.org/x/tools v0.5.0 // indirect
	lukechampine.com/uint128 v1.2.0 // indirect
	modernc.org/cc/v3 v3.40.0 // indirect
	modernc.org/ccgo/v3 v3.16.13 // indirect
	modernc.org/libc v1.22.2 // indirect
	modernc.org/mathutil v1.5.0 // indirect
	modernc.org/memory v1.5.0 // indirect
	modernc.org/opt v0.1.3 // indirect
	modernc.org/strutil v1.1.3 // indirect
	modernc.org/token v1.1.0 // indirect
)
